…
``` r
pivot_longer(
    transit_df,
    route1:route11,
    names_to = "route_num",
    values_to = "route") %>%
  filter(route == "A") %>%
  distinct(station_name, line)
```

    ## # A tibble: 60 × 2
    ##    line            station_name                 
    ##    <chr>           <chr>                        
    ##  1 42nd St Shuttle Times Square                 
    ##  2 8 Avenue        125th St                     
    ##  3 8 Avenue        145th St                     
    ##  4 8 Avenue        14th St                      
    ##  5 8 Avenue        168th St - Washington Heights
    ##  6 8 Avenue        175th St                     
    ##  7 8 Avenue        181st St                     
    ##  8 8 Avenue        190th St                     
    ##  9 8 Avenue        34th St                      
    ## 10 8 Avenue        42nd St                      
    ## # … with 50 more rows
…
